{
  "appNotification" : {
    "_id" : "wm-appErrorHandler-wm.NotificationVariable-1454664620943",
    "name" : "appNotification",
    "owner" : "App",
    "category" : "wm.NotificationVariable",
    "dataBinding" : [ {
      "target" : "class",
      "value" : "Error",
      "type" : "list"
    }, {
      "target" : "toasterPosition",
      "value" : "bottom right",
      "type" : "list"
    } ],
    "operation" : "toast"
  },
  "BrianMercy" : {
    "_id" : "wm-BrianMercy-wm.LiveVariable-1518813023229",
    "name" : "BrianMercy",
    "owner" : "App",
    "category" : "wm.LiveVariable",
    "dataBinding" : [ ],
    "operation" : "read",
    "dataSet" : [ ],
    "type" : "User",
    "isList" : false,
    "saveInPhonegap" : false,
    "maxResults" : 20,
    "designMaxResults" : 10,
    "onSuccess" : "BrianMercyonSuccess($event, $scope)",
    "inFlightBehavior" : "executeLast",
    "startUpdate" : false,
    "autoUpdate" : false,
    "transformationRequired" : false,
    "liveSource" : "hrdb",
    "ignoreCase" : true,
    "matchMode" : "start",
    "orderBy" : "userId asc",
    "propertiesMap" : {
      "columns" : [ {
        "fieldName" : "userId",
        "type" : "integer",
        "fullyQualifiedType" : "integer",
        "columnName" : "USER_ID",
        "isPrimaryKey" : true,
        "notNull" : true,
        "length" : 255,
        "precision" : 10,
        "generator" : "identity",
        "isRelated" : false,
        "scale" : 0
      }, {
        "fieldName" : "username",
        "type" : "string",
        "fullyQualifiedType" : "string",
        "columnName" : "USERNAME",
        "isPrimaryKey" : false,
        "notNull" : false,
        "length" : 20,
        "precision" : 19,
        "generator" : "assigned",
        "isRelated" : false,
        "scale" : 2
      }, {
        "fieldName" : "password",
        "type" : "string",
        "fullyQualifiedType" : "string",
        "columnName" : "PASSWORD",
        "isPrimaryKey" : false,
        "notNull" : false,
        "length" : 20,
        "precision" : 19,
        "generator" : "assigned",
        "isRelated" : false,
        "scale" : 2
      }, {
        "fieldName" : "role",
        "type" : "string",
        "fullyQualifiedType" : "string",
        "columnName" : "ROLE",
        "isPrimaryKey" : false,
        "notNull" : false,
        "length" : 20,
        "precision" : 19,
        "generator" : "assigned",
        "isRelated" : false,
        "scale" : 2
      }, {
        "fieldName" : "tenantId",
        "type" : "integer",
        "fullyQualifiedType" : "integer",
        "columnName" : "TENANT_ID",
        "isPrimaryKey" : false,
        "notNull" : false,
        "length" : 255,
        "precision" : 10,
        "generator" : "assigned",
        "isRelated" : false,
        "scale" : 0
      } ],
      "entityName" : "User",
      "fullyQualifiedName" : "com.hrdb.User",
      "tableType" : "TABLE",
      "primaryFields" : [ "userId" ]
    },
    "bindCount" : 1,
    "tableName" : "USER",
    "tableType" : "TABLE",
    "properties" : [ ],
    "relatedTables" : [ ],
    "filterFields" : { },
    "package" : "com.hrdb.User"
  },
  "BrianMercyNav" : {
    "_id" : "wm-BrianMercyNav-wm.NotificationVariable-1518813091137",
    "name" : "BrianMercyNav",
    "owner" : "App",
    "category" : "wm.NotificationVariable",
    "dataBinding" : [ {
      "target" : "text",
      "value" : "test",
      "type" : "string"
    }, {
      "target" : "title",
      "value" : "test",
      "type" : "string"
    }, {
      "target" : "okButtonText",
      "value" : "ok",
      "type" : "string"
    }, {
      "target" : "cancelButtonText",
      "value" : "cancel",
      "type" : "string"
    } ],
    "operation" : "confirm"
  },
  "goToPage_BrianMercy" : {
    "_id" : "wm-goToPage_BrianMercy-wm.NavigationVariable-1518812929919",
    "name" : "goToPage_BrianMercy",
    "owner" : "App",
    "category" : "wm.NavigationVariable",
    "dataBinding" : [ ],
    "operation" : "gotoPage",
    "pageName" : "BrianMercy",
    "dataSet" : [ ],
    "pageTransitions" : "none"
  },
  "goToPage_Checkboxset" : {
    "_id" : "wm-goToPage_Checkboxset-wm.NavigationVariable-1519141061932",
    "name" : "goToPage_Checkboxset",
    "owner" : "App",
    "category" : "wm.NavigationVariable",
    "dataBinding" : [ ],
    "operation" : "gotoPage",
    "pageName" : "Checkboxset",
    "dataSet" : [ ],
    "pageTransitions" : "none"
  },
  "goToPage_GridCheck" : {
    "_id" : "wm-goToPage_GridCheck-wm.NavigationVariable-1500918544327",
    "name" : "goToPage_GridCheck",
    "owner" : "App",
    "category" : "wm.NavigationVariable",
    "dataBinding" : [ ],
    "operation" : "gotoPage",
    "pageName" : "GridCheck",
    "dataSet" : [ ],
    "pageTransitions" : "none"
  },
  "goToPage_Main" : {
    "_id" : "wm-wm.NavigationVariable1389180517517",
    "name" : "goToPage_Main",
    "owner" : "App",
    "category" : "wm.NavigationVariable",
    "operation" : "gotoPage",
    "pageName" : "Main"
  },
  "goToPage_testCMT" : {
    "_id" : "wm-goToPage_testCMT-wm.NavigationVariable-1520313281572",
    "name" : "goToPage_testCMT",
    "owner" : "App",
    "category" : "wm.NavigationVariable",
    "dataBinding" : [ ],
    "operation" : "gotoPage",
    "pageName" : "testCMT",
    "dataSet" : [ ],
    "pageTransitions" : "none"
  },
  "goToPage_testtest" : {
    "_id" : "wm-goToPage_testtest-wm.NavigationVariable-1520343139252",
    "name" : "goToPage_testtest",
    "owner" : "App",
    "category" : "wm.NavigationVariable",
    "dataBinding" : [ ],
    "operation" : "gotoPage",
    "pageName" : "testtest",
    "dataSet" : [ ],
    "pageTransitions" : "none"
  },
  "loggedInUser" : {
    "_id" : "wm-loggedInUser-wm.Variable-1520313318332",
    "name" : "loggedInUser",
    "owner" : "App",
    "category" : "wm.Variable",
    "dataBinding" : [ ],
    "dataSet" : {
      "name" : "",
      "id" : "",
      "tenantId" : "",
      "isAuthenticated" : false,
      "isSecurityEnabled" : true,
      "roles" : [ ]
    },
    "type" : "string",
    "isList" : false,
    "saveInPhonegap" : false
  },
  "loginAction" : {
    "_id" : "wm-loginAction-wm.LoginVariable-1520313318331",
    "name" : "loginAction",
    "owner" : "App",
    "category" : "wm.LoginVariable",
    "dataBinding" : [ {
      "target" : "username",
      "value" : "bind:Widgets.usernametext.datavalue",
      "type" : "string"
    }, {
      "target" : "password",
      "value" : "bind:Widgets.passwordtext.datavalue",
      "type" : "string"
    }, {
      "target" : "rememberme",
      "value" : "bind:Widgets.remembermecheck.datavalue",
      "type" : "boolean"
    } ],
    "dataSet" : {
      "username" : "",
      "password" : "",
      "rememberme" : false
    },
    "type" : "string",
    "saveInPhonegap" : false,
    "startUpdate" : false,
    "autoUpdate" : false,
    "inFlightBehavior" : "executeLast",
    "transformationRequired" : false,
    "useDefaultSuccessHandler" : true
  },
  "logoutAction" : {
    "_id" : "wm-logoutAction-wm.LogoutVariable-1520313318331",
    "name" : "logoutAction",
    "owner" : "App",
    "category" : "wm.LogoutVariable",
    "type" : "string",
    "saveInPhonegap" : false,
    "inFlightBehavior" : "executeLast",
    "transformationRequired" : false,
    "redirectTo" : "Login",
    "useDefaultSuccessHandler" : true
  },
  "supportedLocale" : {
    "_id" : "wm-wm.Variable1402640443182",
    "name" : "supportedLocale",
    "owner" : "App",
    "category" : "wm.Variable",
    "dataSet" : {
      "en" : "English"
    },
    "type" : "string",
    "isList" : false,
    "saveInPhonegap" : false
  },
  "timerAction1" : {
    "_id" : "wm-timerAction1-wm.TimerVariable-1518812989007",
    "name" : "timerAction1",
    "owner" : "App",
    "category" : "wm.TimerVariable",
    "autoStart" : false,
    "repeating" : false,
    "delay" : 500,
    "onTimerFire" : "Variables.BrianMercy.listRecords()"
  }
}